module golang

go 1.17

require (
	github.com/cloudflare/cloudflare-go v0.68.0
	github.com/google/go-github v17.0.0+incompatible
	github.com/google/go-querystring v1.1.0 // indirect
	github.com/sashabaranov/go-openai v1.9.4
	github.com/spf13/viper v1.15.0
	golang.org/x/oauth2 v0.8.0
)

require (
	github.com/fsnotify/fsnotify v1.6.0 // indirect
	github.com/golang/protobuf v1.5.2 // indirect
	github.com/hashicorp/go-cleanhttp v0.5.2 // indirect
	github.com/hashicorp/go-retryablehttp v0.7.2 // indirect
	github.com/hashicorp/hcl v1.0.0 // indirect
	github.com/joho/godotenv v1.5.1 // indirect
	github.com/magiconair/properties v1.8.7 // indirect
	github.com/mitchellh/mapstructure v1.5.0 // indirect
	github.com/pelletier/go-toml/v2 v2.0.6 // indirect
	github.com/spf13/afero v1.9.3 // indirect
	github.com/spf13/cast v1.5.0 // indirect
	github.com/spf13/jwalterweatherman v1.1.0 // indirect
	github.com/spf13/pflag v1.0.5 // indirect
	github.com/subosito/gotenv v1.4.2 // indirect
	golang.org/x/net v0.10.0 // indirect
	golang.org/x/sys v0.8.0 // indirect
	golang.org/x/text v0.9.0 // indirect
	golang.org/x/time v0.3.0 // indirect
	google.golang.org/appengine v1.6.7 // indirect
	google.golang.org/protobuf v1.28.1 // indirect
	gopkg.in/ini.v1 v1.67.0 // indirect
	gopkg.in/yaml.v3 v3.0.1 // indirect
)
